src/cpu.vcd
$date
	Tue Jul 14 22:09:15 2026
$end
$version
	Icarus Verilog
$end
$timescale
	1ps
$end
$scope module top_tb $end
$var wire 1 ! clk_en $end
$var wire 1 " spi_miso_en $end
$var wire 1 # spi_miso $end
$var reg 1 $ clk $end
$var reg 1 % rst_n $end
$var reg 1 & spi_mosi $end
$var reg 1 ' spi_sck $end
$var reg 1 ( spi_ss_n $end
$scope module uut $end
$var wire 1 $ clk $end
$var wire 1 ! clk_en $end
$var wire 1 ) reset $end
$var wire 1 % rst_n $end
$var wire 1 & spi_mosi $end
$var wire 1 ' spi_sck $end
$var wire 1 ( spi_ss_n $end
$var wire 1 * zero_flag $end
$var wire 8 + write_data [7:0] $end
$var wire 1 " spi_miso_en $end
$var wire 1 # spi_miso $end
$var wire 1 , rx_valid_pulse $end
$var wire 8 - rx_data_wire [7:0] $end
$var wire 4 . rs [3:0] $end
$var wire 1 / reg_write_en $end
$var wire 8 0 reg_b [7:0] $end
$var wire 8 1 reg_a [7:0] $end
$var wire 4 2 rd [3:0] $end
$var wire 8 3 pc_value [7:0] $end
$var wire 1 4 pc_load $end
$var wire 1 5 pc_inc $end
$var wire 4 6 opcode [3:0] $end
$var wire 1 7 mem_write $end
$var wire 1 8 mem_read $end
$var wire 8 9 mem_data [7:0] $end
$var wire 1 : ir_load $end
$var wire 16 ; instruction_mem_out [15:0] $end
$var wire 16 < instruction [15:0] $end
$var wire 8 = immediate_data [7:0] $end
$var wire 8 > debug_r1 [7:0] $end
$var wire 8 ? alu_out [7:0] $end
$var wire 4 @ alu_op [3:0] $end
$var wire 8 A address [7:0] $end
$var parameter 4 B LDI $end
$var parameter 4 C LOAD $end
$var parameter 4 D STORE $end
$var reg 8 E alu_result_reg [7:0] $end
$var reg 8 F tx_data_reg [7:0] $end
$scope module u_alu $end
$var wire 1 * zero $end
$var wire 8 G reg_b [7:0] $end
$var wire 8 H reg_a [7:0] $end
$var wire 4 I opcode [3:0] $end
$var reg 8 J out [7:0] $end
$upscope $end
$scope module u_control_unit $end
$var wire 1 $ clk $end
$var wire 1 ) reset $end
$var wire 1 * zero_flag $end
$var wire 4 K opcode [3:0] $end
$var parameter 4 L ADD $end
$var parameter 4 M AND $end
$var parameter 4 N DEC $end
$var parameter 3 O DECODE $end
$var parameter 3 P EXECUTE $end
$var parameter 3 Q FETCH $end
$var parameter 3 R HALT $end
$var parameter 4 S HLT $end
$var parameter 4 T INC $end
$var parameter 4 U JMP $end
$var parameter 4 V LDI $end
$var parameter 4 W LOAD $end
$var parameter 3 X MEMORY $end
$var parameter 4 Y MOV $end
$var parameter 4 Z NOT $end
$var parameter 4 [ OR $end
$var parameter 4 \ SHL $end
$var parameter 4 ] SHR $end
$var parameter 4 ^ STORE $end
$var parameter 4 _ SUB $end
$var parameter 3 ` WRITEBACK $end
$var parameter 4 a XOR $end
$var reg 4 b alu_op [3:0] $end
$var reg 1 : ir_load $end
$var reg 1 8 mem_read $end
$var reg 1 7 mem_write $end
$var reg 3 c next_state [2:0] $end
$var reg 1 5 pc_inc $end
$var reg 1 4 pc_load $end
$var reg 1 / reg_write_en $end
$var reg 3 d state [2:0] $end
$upscope $end
$scope module u_ins_decode $end
$var wire 4 e rs [3:0] $end
$var wire 4 f rd [3:0] $end
$var wire 4 g opcode [3:0] $end
$var wire 16 h instruction [15:0] $end
$var wire 8 i immediate [7:0] $end
$var wire 8 j address [7:0] $end
$upscope $end
$scope module u_ins_mem $end
$var wire 1 $ clk $end
$var wire 16 k instruction [15:0] $end
$var wire 8 l address [7:0] $end
$var parameter 4 m ADD $end
$var parameter 4 n AND $end
$var parameter 4 o DEC $end
$var parameter 4 p HLT $end
$var parameter 4 q INC $end
$var parameter 4 r JMP $end
$var parameter 4 s LDI $end
$var parameter 4 t LOAD $end
$var parameter 4 u MOV $end
$var parameter 4 v NOT $end
$var parameter 4 w OR $end
$var parameter 4 x SHL $end
$var parameter 4 y SHR $end
$var parameter 4 z STORE $end
$var parameter 4 { SUB $end
$var parameter 4 | XOR $end
$upscope $end
$scope module u_ins_reg $end
$var wire 1 $ clk $end
$var wire 16 } ins_in [15:0] $end
$var wire 1 : load_en $end
$var wire 1 ) reset $end
$var reg 16 ~ ins_out [15:0] $end
$upscope $end
$scope module u_mem $end
$var wire 8 !" address [7:0] $end
$var wire 1 $ clk $end
$var wire 8 "" read_data [7:0] $end
$var wire 1 ) reset $end
$var wire 1 7 write_en $end
$var wire 8 #" write_data [7:0] $end
$upscope $end
$scope module u_pc $end
$var wire 1 $ clk $end
$var wire 1 5 inc $end
$var wire 8 $" load_addr [7:0] $end
$var wire 1 4 load_en $end
$var wire 1 ) reset $end
$var reg 8 %" pc_value [7:0] $end
$upscope $end
$scope module u_reg $end
$var wire 1 $ clk $end
$var wire 8 &" debug_r1 [7:0] $end
$var wire 4 '" read_addr_1 [3:0] $end
$var wire 4 (" read_addr_2 [3:0] $end
$var wire 8 )" read_data_1 [7:0] $end
$var wire 8 *" read_data_2 [7:0] $end
$var wire 1 ) reset $end
$var wire 4 +" write_adrr_1 [3:0] $end
$var wire 8 ," write_data [7:0] $end
$var wire 1 / write_en $end
$var integer 32 -" i [31:0] $end
$upscope $end
$scope module u_spi_target $end
$var wire 1 $ i_clk $end
$var wire 1 ." i_enable $end
$var wire 1 & i_mosi $end
$var wire 1 % i_rst_n $end
$var wire 1 ' i_sck $end
$var wire 1 ( i_ss_n $end
$var wire 8 /" i_tx_data [7:0] $end
$var wire 1 " o_miso_oe $end
$var wire 1 0" o_tx_data_hold $end
$var wire 1 1" w_sck_edge $end
$var wire 1 2" w_sck_edge_op $end
$var wire 1 3" w_sck_f_edge $end
$var wire 1 4" w_sck_r_edge $end
$var wire 1 # o_miso $end
$var parameter 1 5" CPHA $end
$var parameter 1 6" CPOL $end
$var parameter 1 7" LSB $end
$var parameter 32 8" WIDTH $end
$var reg 8 9" o_rx_data [7:0] $end
$var reg 1 , o_rx_data_valid $end
$var reg 8 :" r_miso_data [7:0] $end
$var reg 3 ;" r_sck_sync [2:0] $end
$var reg 3 <" r_ss_n_sync [2:0] $end
$var reg 4 =" r_transmision_count [3:0] $end
$upscope $end
$upscope $end
$upscope $end
$enddefinitions $end
$comment Show the parameter values. $end
$dumpall
b1000 8"
07"
06"
05"
b1010 |
b101 {
b11 z
b1101 y
b1100 x
b1001 w
b1011 v
b1 u
b10 t
b0 s
b1110 r
b110 q
b1111 p
b111 o
b1000 n
b100 m
b1010 a
b100 `
b101 _
b11 ^
b1101 ]
b1100 \
b1001 [
b1011 Z
b1 Y
b11 X
b10 W
b0 V
b1110 U
b110 T
b1111 S
b101 R
b0 Q
b10 P
b1 O
b111 N
b1000 M
b100 L
b1001 D
b1000 C
b111 B
$end
#0
$dumpvars
b0 ="
b111 <"
b0 ;"
b0 :"
b0 9"
04"
03"
02"
01"
00"
b0 /"
1."
bx -"
bx ,"
bx +"
bx *"
bx )"
bx ("
bx '"
bx &"
bx %"
bx $"
bx #"
bx ""
bx !"
bx ~
bx }
bx l
bx k
bx j
bx i
bx h
bx g
bx f
bx e
bx d
bx c
bx b
bx K
bx J
bx I
bx H
bx G
b0 F
bx E
bx A
bx @
bx ?
bx >
bx =
bx <
bx ;
x:
bx 9
x8
x7
bx 6
x5
x4
bx 3
bx 2
bx 1
bx 0
x/
bx .
b0 -
0,
bx +
x*
1)
1(
0'
0&
0%
0$
0#
0"
1!
$end
#10000
b0 +
b0 ,"
1*
b0 ?
b0 J
b100001010 ;
b100001010 k
b100001010 }
b0 A
b0 j
b0 !"
b0 $"
b0 =
b0 i
b0 0
b0 G
b0 *"
b0 .
b0 e
b0 ("
b0 1
b0 H
b0 #"
b0 )"
b0 2
b0 f
b0 '"
b0 +"
b0 6
b0 K
b0 g
b1 c
b0 @
b0 I
b0 b
07
08
0/
04
05
1:
b0 3
b0 l
b0 %"
b0 <
b0 h
b0 ~
b0 d
b0 >
b0 &"
b0 E
b10000 -"
1$
#20000
0$
#30000
b10000 -"
1$
#40000
0$
#50000
b10000 -"
1$
#60000
0$
#70000
b10000 -"
1$
#80000
0$
#90000
b10000 -"
1$
#100000
0)
0$
1%
#110000
b100 c
0:
b1010 A
b1010 j
b1010 !"
b1010 $"
b1010 =
b1010 i
b1 2
b1 f
b1 '"
b1 +"
b1 d
b100001010 <
b100001010 h
b100001010 ~
1$
#120000
0$
#130000
b0 c
15
1/
b100 d
1$
#140000
0$
#150000
b1 c
1:
0/
05
b1000010100 ;
b1000010100 k
b1000010100 }
b0 d
b1 3
b1 l
b1 %"
1$
#160000
0$
#170000
b10100 A
b10100 j
b10100 !"
b10100 $"
b10100 =
b10100 i
b1 .
b1 e
b1 ("
b10 2
b10 f
b10 '"
b10 +"
b100 c
0:
b1000010100 <
b1000010100 h
b1000010100 ~
b1 d
1$
#180000
0$
#190000
b0 c
15
1/
b100 d
1$
#200000
0$
#210000
b100000100100000 ;
b100000100100000 k
b100000100100000 }
b1 c
1:
0/
05
b10 3
b10 l
b10 %"
b0 d
1$
#220000
0$
#230000
b10 c
0:
b100000 A
b100000 j
b100000 !"
b100000 $"
b100000 =
b100000 i
b10 .
b10 e
b10 ("
b1 2
b1 f
b1 '"
b1 +"
b100 6
b100 K
b100 g
b1 d
b100000100100000 <
b100000100100000 h
b100000100100000 ~
1$
#240000
0$
#250000
b100 c
b100 @
b100 I
b100 b
b10 d
1$
#260000
0$
#270000
b0 c
15
1/
b0 @
b0 I
b0 b
b100 d
1$
#280000
0$
#290000
b1111000000000000 ;
b1111000000000000 k
b1111000000000000 }
b1 c
1:
0/
05
b11 3
b11 l
b11 %"
b0 d
1$
#300000
0$
#310000
b101 c
0:
b0 A
b0 j
b0 !"
b0 $"
b0 =
b0 i
b0 .
b0 e
b0 ("
b0 2
b0 f
b0 '"
b0 +"
b1111 6
b1111 K
b1111 g
b1 d
b1111000000000000 <
b1111000000000000 h
b1111000000000000 ~
1$
#320000
0$
#330000
b101 d
1$
